[Project]
Toolset=AVR
FormatVersion=2
Files=8
OpenedFiles=12
Top0=116
Left0=267
Height0=337
Width0=489
Active0=0
State0=0
OF1=lcd-5110-thai.h
Top1=93
Left1=267
Height1=337
Width1=489
Row1=39
Collumn1=37
Active1=0
State1=0
OF2=lcd-control.h
Top2=93
Left2=267
Height2=337
Width2=489
Row2=39
Collumn2=2
Active2=0
State2=0
OF3=matrixkeypad4x3.c
Top3=-30
Left3=-4
Height3=451
Width3=1092
Row3=82
Collumn3=0
Active3=1
State3=2
OF4=seven_number.c
Top4=91
Left4=267
Height4=337
Width4=489
Row4=0
Collumn4=0
Active4=0
State4=0
OF5=dummy_main.c
Top5=91
Left5=267
Height5=337
Width5=489
Row5=11
Collumn5=19
Active5=0
State5=0
OF6=debug_utility.c
Top6=91
Left6=267
Height6=337
Width6=489
Row6=11
Collumn6=25
Active6=0
State6=0
OF7=lunar_process.c
Top7=91
Left7=267
Height7=337
Width7=489
Row7=117
Collumn7=0
Active7=0
State7=0
OF8=lcd-5110-thai.c
Top8=91
Left8=267
Height8=337
Width8=489
Row8=0
Collumn8=0
Active8=0
State8=0
OF9=gui.c
Top9=91
Left9=267
Height9=337
Width9=489
Row9=0
Collumn9=0
Active9=0
State9=0
F1=lunar_process.c
F2=lcd-5110-thai.c
F3=lcd-control.c
F4=main.c
F5=matrixkeypad4x3.c
F6=seven_number.c
F7=gui.c
F8=debug_utility.c
OF10=lunar_process.h
Top10=91
Left10=267
Height10=337
Width10=489
Row10=8
Collumn10=0
Active10=0
State10=0
OF11=main.c
Top11=193
Left11=395
Height11=337
Width11=489
Row11=37
Collumn11=34
Active11=0
State11=0
OF12=lcd-control.c
Top12=193
Left12=395
Height12=337
Width12=489
Row12=0
Collumn12=0
Active12=0
State12=0
[Compiler]
Chip=ATmega32L
CPUClock=4000000
MemoryModel=1
OptimizeSize=1
OptimizationLevel=2
PrintfFeatures=3
ScanfFeatures=0
DataStackSize=512
PgmMemSize=32768
RAMStart=96
RAMEnd=2143
XRAMSize=0
XRAMWaitState=0
HeapSize=0
ExternalInterruptVectors=0
InterruptVectorsNumber=21
InterruptVectorJump=1
ResetVector=0
PromoteCharToInt=0
CharIsUnsigned=1
8BitEnums=0
EnhancedCoreInstructions=1
AutomaticRegisterAllocation=1
SmartRegisterAllocation=1
WordAlignFLASHStructMembers=0
PreprocessorOutput=1
ExternalStartupFile=0
ExternalStartupFileWarning=0
BitVariablesSize=16
UseHiGPIORbit=0
StackEndMarkers=0
Warnings=1
WarningConstantRange=0
WarningPossibleLossOfPrecision=0
WarningArrayIndex=1
WarningGlobalVariableAddress=1
WarningInterruptVector=1
WarningUninitializedFLASH=1
WarningUninitializedEEPROM=1
WarningSuspiciousPointerConversion=1
WarningRegisterAllocated=1
WarningMacroRedefined=1
WarningFunctionReturn=1
WarningUnreferencedFunction=1
WarningUnreferencedFunctionParameter=1
WarningUnreferencedLocalVariable=1
WarningUnreferencedGlobalVariable=1
WarningUnreferencedLabel=1
WarningEmptyLine=1
WarningExpressionHasNoEffect=1
WarningUnknownEscapeSequence=1
WarningShiftResult0=1
Warning8BitAdditionOverflow=1
Warning8BitMultiplicationOverflow=1
Warning16BitAdditionOverflow=1
Warning16BitMultiplicationOverflow=1
WarningPossiblyIncorrectAssignment=1
WarningPointlessComparison=1
WarningConstCtrlExpr=1
WarningUndefinedSymbol=1
WarningCantAllocVarToReg=1
WarningDataStackUsage=1
WarningDataStackRecursion=1
WarningHardwareStackLow=1
DebugBootLoader=0
Build=399
UseEEPROMLocation0=1
IncludePath0=
IncludePath1=
IncludePath2=
IncludePath3=
IncludePath4=
IncludePath5=
IncludePath6=
IncludePath7=
IncludePath8=
IncludePath9=
IncludePath10=
IncludePath11=
IncludePath12=
IncludePath13=
IncludePath14=
IncludePath15=
IncludePath16=
IncludePath17=
IncludePath18=
IncludePath19=
IncludePath20=
IncludePath21=
IncludePath22=
IncludePath23=
IncludePath24=
IncludePath25=
IncludePath26=
IncludePath27=
IncludePath28=
IncludePath29=
IncludePath30=
IncludePath31=
LibraryPath0=
LibraryPath1=
LibraryPath2=
LibraryPath3=
LibraryPath4=
LibraryPath5=
LibraryPath6=
LibraryPath7=
LibraryPath8=
LibraryPath9=
LibraryPath10=
LibraryPath11=
LibraryPath12=
LibraryPath13=
LibraryPath14=
LibraryPath15=
LibraryPath16=
LibraryPath17=
LibraryPath18=
LibraryPath19=
LibraryPath20=
LibraryPath21=
LibraryPath22=
LibraryPath23=
LibraryPath24=
LibraryPath25=
LibraryPath26=
LibraryPath27=
LibraryPath28=
LibraryPath29=
LibraryPath30=
LibraryPath31=
[DefinedSymbols]
Count=0
[Assembler]
OutputFormat=1
TerminalIO=0
[AfterMake]
ProgrammChip=0
MergeROMFile=0
ROMFilePath=
SCKFrequency=1000000
LockBits=0
BootLockBits0=0
BootLockBits1=0
ProgramFuseBits=1
Fuse1=0
Fuse2=0
Fuse3=0
Fuse4=0
Fuse5=0
Fuse6=0
Fuse7=0
Fuse8=0
Fuse9=0
Fuse10=0
Fuse11=0
Fuse12=0
Fuse13=0
Fuse14=0
Fuse15=0
Fuse16=0
Fuse17=0
Fuse18=0
Fuse19=0
Fuse20=0
Fuse21=0
Fuse22=0
Fuse23=0
Fuse24=0
CheckSignature=1
CheckErasure=0
PreserveEEPROM=0
VerifyProgramming=1
ProgrammingCounter=0
RunUserProg=0
UserProgPath=
UserProgCmdLine=
UserProgWorkDir=
[BeforeMake]
RunUserProg=0
UserProgPath=
UserProgCmdLine=
UserProgWorkDir=
